----------------------------------------------------------------------
Ran 14 tests in 0.015s

OK
Name             Stmts   Miss Branch BrPart  Cover   Missing
------------------------------------------------------------
Collatz.py          36      0     14      0   100%
TestCollatz.py      68      0      0      0   100%
------------------------------------------------------------
TOTAL              104      0     14      0   100%
