1 1 1
100 100 26
589 589 119
203 203 40
2 2 2
11 11 15
123 123 47
100992 100992 36
999999 999999 259
5 5 6
2 1 2
10 5 20
100 1 119
5000 999 238
123 122 47
999999 1 525
500001 201999 449
591 200 144
21 20 8
682167 500000 509
1 1000 179
2001 3000 217
4001 5000 215
6001 7000 262
8001 9000 247
10001 11000 268
12001 13000 263
14001 15000 271
16001 17000 266
18001 19000 261
20001 21000 256
22001 23000 269
24001 25000 264
26001 27000 308
28001 29000 259
30001 31000 272
32001 33000 267
34001 35000 311
36001 37000 249
38001 39000 244
40001 41000 288
42001 43000 288
44001 45000 270
46001 47000 283
48001 49000 296
50001 51000 278
52001 53000 340
54001 55000 260
56001 57000 322
58001 59000 273
60001 61000 335
62001 63000 286
64001 65000 299
66001 67000 268
68001 69000 312
70001 71000 312
72001 73000 263
74001 75000 325
76001 77000 307
78001 79000 338
80001 81000 320
82001 83000 320
84001 85000 320
86001 87000 302
88001 89000 333
90001 91000 315
92001 93000 315
94001 95000 315
96001 97000 297
98001 99000 284
500000 500600 364
500501 501101 333
501002 501602 320
501503 502103 320
502004 502604 426
502505 503105 320
503006 503606 271
503507 504107 333
504008 504608 364
504509 505109 320
505010 505610 364
505511 506111 364
506012 506612 364
506513 507113 382
507014 507614 333
507515 508115 364
508016 508616 333
508517 509117 377
509018 509618 302
509519 510119 364
510020 510620 289
510521 511121 333
511022 511622 320
511523 512123 470
512024 512624 333
512525 513125 333
513026 513626 333
513527 514127 351
514028 514628 302
514529 515129 364
1 999999 525
