1 10 20
100 200 125
201 210 89
900 1000 174
140892 596854 470
888599 841236 445
800876 66173 509
267460 123647 443
519502 797927 509
471326 495186 426
683245 398056 509
827037 220154 509
98419 511555 449
29725 936711 525
876364 408745 525
453790 636945 509
799309 804424 406
2209 729634 509
467023 279268 449
756590 840776 525
239875 619870 470
991189 107193 525
945216 332850 525
32076 23407 308
26682 681099 509
567713 9653 470
984770 924041 507
399722 719831 509
227121 442622 449
761112 30452 509
553260 232461 470
800799 459159 509
984788 519897 525
579716 244407 470
362494 242082 441
709728 229409 509
797912 481930 509
998501 303859 525
971513 22534 525
436397 878265 525
960779 583485 525
966985 673495 525
104858 194937 383
659925 758791 504
901720 310788 525
126763 779246 509
348857 939079 525
756532 745739 424
525127 981930 525
442612 532381 470
870356 954399 507
702867 199072 509
318105 297963 384
616123 925347 525
523620 887303 525
986620 529829 525
412462 617614 470
894738 36203 525
503555 254532 449
779859 836139 468
423927 434440 387
697035 181412 509
384958 575458 470
925612 737192 525
813525 707250 468
774076 392905 509
90668 460285 449
696001 533124 509
113175 816257 509
171651 546244 470
880754 412358 525
388522 513481 470
768361 31012 509
492118 45600 449
323517 737550 509
889509 644676 525
621999 606262 447
412720 678593 509
178625 176784 347
526636 237962 470
12900 807953 509
209209 565830 470
964781 902080 507
574975 243455 470
424102 538729 470
360528 998735 525
888628 605862 525
370435 481435 449
953948 282360 525
691237 574616 509
638525 764832 504
5987 402328 443
821723 898577 525
860342 929227 476
984046 776475 525
537396 848445 525
135528 543874 470
815161 588627 509
215467 446789 449
995853 58850 525
504472 912272 525
382454 597688 470
581332 209547 470
986725 529238 525
433482 508481 444
852861 374122 525
434556 362890 449
1662 564636 470
